…
This is an exploration of pedometer data collected on one subject over a 2-month study.

A preview of the data:

``` r
print(activity)
```

    ## # A tibble: 17,568 x 6
    ##    steps       date interval    day  hour minute
    ##    <int>     <date>    <int>  <chr> <dbl>  <dbl>
    ##  1    NA 2012-10-01        0 Monday     0      0
    ##  2    NA 2012-10-01        5 Monday     0      5
    ##  3    NA 2012-10-01       10 Monday     0     10
    ##  4    NA 2012-10-01       15 Monday     0     15
    ##  5    NA 2012-10-01       20 Monday     0     20
    ##  6    NA 2012-10-01       25 Monday     0     25
    ##  7    NA 2012-10-01       30 Monday     0     30
    ##  8    NA 2012-10-01       35 Monday     0     35
    ##  9    NA 2012-10-01       40 Monday     0     40
    ## 10    NA 2012-10-01       45 Monday     0     45
    ## # ... with 17,558 more rows
…
It is also worth noting that the dates October 2 and November 15 have miniscule `steps` totals relative to the next lowest days. Both dates follow dates with missing values, and both have their total steps occurring within ten-minute windows. This exploration will treat these dates as valid data; however, follow-up would be warranted to see if the subject failed to wear the tracking device. Then the dates could be discarded or the missing intervals imputed.

Total steps per day, sorted ascending to contrast these and other dates:

``` r
activity_na_rm %>%
  group_by(date) %>%
  summarise(steps = sum(steps)) %>%
  arrange(steps)
```

    ## # A tibble: 53 x 2
    ##          date steps
    ##        <date> <int>
    ##  1 2012-11-15    41
    ##  2 2012-10-02   126
    ##  3 2012-10-25  2492
    ##  4 2012-11-08  3219
    ##  5 2012-11-20  4472
    ##  6 2012-10-29  5018
    ##  7 2012-11-16  5441
    ##  8 2012-10-26  6778
    ##  9 2012-11-29  7047
    ## 10 2012-11-13  7336
    ## # ... with 43 more rows
…
    ##    Min. 1st Qu.  Median    Mean 3rd Qu.    Max. 
    ##     1.0    25.0    56.0   134.3   146.8   806.0

The maximum steps recorded in a 5-minute interval is 806. That's 2.68 steps per second, on par with a tempo of [161 beats per minute](https://www.youtube.com/watch?v=E2X4Fv4FjE4). That would seem to be faster than a steady jog and perhaps just short of a sprint--quite high-intensity exercise if triggered by the subject's movement. While entirely plausible, it is also possible these high values were caused by the motion of a bumpy vehicle or other outside source.

``` r
arrange(activity, desc(steps))
```

    ## # A tibble: 17,568 x 6
    ##    steps       date interval      day  hour minute
    ##    <int>     <date>    <int>    <chr> <dbl>  <dbl>
    ##  1   806 2012-11-27      615  Tuesday     6     15
    ##  2   802 2012-10-12      900   Friday     9      0
    ##  3   794 2012-11-27      550  Tuesday     5     50
    ##  4   789 2012-11-19      720   Monday     7     20
    ##  5   786 2012-10-15      835   Monday     8     35
    ##  6   785 2012-11-05      925   Monday     9     25
    ##  7   785 2012-11-18     1635   Sunday    16     35
    ##  8   785 2012-11-24     1600 Saturday    16      0
    ##  9   783 2012-10-22     1140   Monday    11     40
    ## 10   781 2012-10-15      850   Monday     8     50
    ## # ... with 17,558 more rows
…
