…
    ##      steps      
    ##  Min.   :  1.0  
    ##  1st Qu.: 25.0  
    ##  Median : 56.0  
    ##  Mean   :134.3  
    ##  3rd Qu.:146.8  
    ##  Max.   :806.0

It's interesting to note that the maximum number of steps in a 5-minute interval is 806. That's 2.68 steps per second, on par with a tempo of [161 beats per minute](https://www.youtube.com/watch?v=E2X4Fv4FjE4). That would seem to be faster than a steady jog, perhaps just short of a sprint—high-intensity exercise, regardless of the activity.

``` r
arrange(activity, desc(steps))
```

    ## # A tibble: 17,568 x 4
    ##    steps       date interval      day
    ##    <int>     <date>    <int>    <chr>
    ##  1   806 2012-11-27      615  Tuesday
    ##  2   802 2012-10-12      900   Friday
    ##  3   794 2012-11-27      550  Tuesday
    ##  4   789 2012-11-19      720   Monday
    ##  5   786 2012-10-15      835   Monday
    ##  6   785 2012-11-05      925   Monday
    ##  7   785 2012-11-18     1635   Sunday
    ##  8   785 2012-11-24     1600 Saturday
    ##  9   783 2012-10-22     1140   Monday
    ## 10   781 2012-10-15      850   Monday
    ## # ... with 17,558 more rows
…
