Personal Activity Analysis
================
Chris Sirico
11/27/2017

This is an exploration of pedometer data collected on one subject over a 2-month study.

Let's preview our data.

``` r
print(activity)
```

    ## # A tibble: 17,568 x 6
    ##    steps       date interval    day  hour minute
    ##    <int>     <date>    <int>  <chr> <dbl>  <dbl>
    ##  1    NA 2012-10-01        0 Monday     0      0
    ##  2    NA 2012-10-01        5 Monday     0      5
    ##  3    NA 2012-10-01       10 Monday     0     10
    ##  4    NA 2012-10-01       15 Monday     0     15
    ##  5    NA 2012-10-01       20 Monday     0     20
    ##  6    NA 2012-10-01       25 Monday     0     25
    ##  7    NA 2012-10-01       30 Monday     0     30
    ##  8    NA 2012-10-01       35 Monday     0     35
    ##  9    NA 2012-10-01       40 Monday     0     40
    ## 10    NA 2012-10-01       45 Monday     0     45
    ## # ... with 17,558 more rows
…
    ##      steps      
    ##  Min.   :  1.0  
    ##  1st Qu.: 25.0  
    ##  Median : 56.0  
    ##  Mean   :134.3  
    ##  3rd Qu.:146.8  
    ##  Max.   :806.0

It's interesting to note that the maximum number of steps in a 5-minute interval is 806. That's 2.68 steps per second, on par with a tempo of [161 beats per minute](https://www.youtube.com/watch?v=E2X4Fv4FjE4). That would seem to be faster than a steady jog and perhaps just short of a sprint. High-intensity exercise, regardless of the activity.

``` r
arrange(activity, desc(steps))
```

    ## # A tibble: 17,568 x 6
    ##    steps       date interval      day  hour minute
    ##    <int>     <date>    <int>    <chr> <dbl>  <dbl>
    ##  1   806 2012-11-27      615  Tuesday     6     15
    ##  2   802 2012-10-12      900   Friday     9      0
    ##  3   794 2012-11-27      550  Tuesday     5     50
    ##  4   789 2012-11-19      720   Monday     7     20
    ##  5   786 2012-10-15      835   Monday     8     35
    ##  6   785 2012-11-05      925   Monday     9     25
    ##  7   785 2012-11-18     1635   Sunday    16     35
    ##  8   785 2012-11-24     1600 Saturday    16      0
    ##  9   783 2012-10-22     1140   Monday    11     40
    ## 10   781 2012-10-15      850   Monday     8     50
    ## # ... with 17,558 more rows
…
